Working with real data
…
filter

Most of the time you will want to work on subset observations of your data.

filter() allows you to select a subset of the rows of a data frame.

The first argument is the name of the data frame, and the second and subsequent are filtering expressions evaluated in the context of that data frame.

Example

Select all flights with tail number equal to “N14228”.

filter(flights, tailnum == "N14228")

## # A tibble: 111 x 19
##     year month   day dep_time sched_dep_time dep_delay arr_time sched_arr_time arr_delay carrier flight tailnum origin dest  air_time distance  hour
##    <int> <int> <int>    <int>          <int>     <dbl>    <int>          <int>     <dbl> <chr>    <int> <chr>   <chr>  <chr>    <dbl>    <dbl> <dbl>
##  1  2013     1     1      517            515         2      830            819        11 UA        1545 N14228  EWR    IAH        227     1400     5
##  2  2013     1     8     1435           1440        -5     1717           1746       -29 UA        1579 N14228  EWR    MIA        150     1085    14
##  3  2013     1     9      717            700        17      812            815        -3 UA        1142 N14228  EWR    BOS         39      200     7
##  4  2013     1     9     1143           1144        -1     1425           1445       -20 UA        1707 N14228  EWR    TPA        149      997    11
##  5  2013     1    13      835            824        11     1030            951        39 UA        1572 N14228  EWR    BOS         43      200     8
##  6  2013     1    16     1829           1730        59     2117           2023        54 UA        1637 N14228  EWR    TPA        144      997    17
##  7  2013     1    22     1902           1808        54     2214           2106        68 UA        1269 N14228  EWR    PBI        163     1023    18
##  8  2013     1    23     1050           1056        -6     1143           1208       -25 UA        1047 N14228  EWR    BOS         39      200    10
##  9  2013     1    23     1533           1529         4     1641           1645        -4 UA        1116 N14228  EWR    BOS         47      200    15
## 10  2013     1    25      724            720         4     1000           1023       -23 UA        1724 N14228  EWR    PBI        137     1023     7
## # … with 101 more rows, and 2 more variables: minute <dbl>, time_hour <dttm>

Example

Select all flights with a departure delay >= 180 minutes.

filter(flights, dep_delay >= 180)

## # A tibble: 3,945 x 19
##     year month   day dep_time sched_dep_time dep_delay arr_time sched_arr_time arr_delay carrier flight tailnum origin dest  air_time distance  hour
##    <int> <int> <int>    <int>          <int>     <dbl>    <int>          <int>     <dbl> <chr>    <int> <chr>   <chr>  <chr>    <dbl>    <dbl> <dbl>
##  1  2013     1     1      848           1835       853     1001           1950       851 MQ        3944 N942MQ  JFK    BWI         41      184    18
##  2  2013     1     1     1815           1325       290     2120           1542       338 EV        4417 N17185  EWR    OMA        213     1134    13
##  3  2013     1     1     1842           1422       260     1958           1535       263 EV        4633 N18120  EWR    BTV         46      266    14
##  4  2013     1     1     2006           1630       216     2230           1848       222 EV        4644 N14972  EWR    SAV        121      708    16
##  5  2013     1     1     2115           1700       255     2330           1920       250 9E        3347 N924XJ  JFK    CVG        115      589    17
##  6  2013     1     1     2205           1720       285       46           2040       246 AA        1999 N5DNAA  EWR    MIA        146     1085    17
##  7  2013     1     1     2312           2000       192       21           2110       191 EV        4312 N13958  EWR    DCA         44      199    20
##  8  2013     1     1     2343           1724       379      314           1938       456 EV        4321 N21197  EWR    MCI        222     1092    17
##  9  2013     1     2     1244            900       224     1431           1104       207 EV        4412 N13958  EWR    MYR         94      550     9
## 10  2013     1     2     1332            904       268     1616           1128       288 EV        4364 N41104  EWR    MCI        203     1092     9
## # … with 3,935 more rows, and 2 more variables: minute <dbl>, time_hour <dttm>

Example

Select all flights from carriers “MQ” or “EV”.

filter(flights, carrier ==  "MQ" | carrier == "EV")

## # A tibble: 80,570 x 19
##     year month   day dep_time sched_dep_time dep_delay arr_time sched_arr_time arr_delay carrier flight tailnum origin dest  air_time distance  hour
##    <int> <int> <int>    <int>          <int>     <dbl>    <int>          <int>     <dbl> <chr>    <int> <chr>   <chr>  <chr>    <dbl>    <dbl> <dbl>
##  1  2013     1     1      557            600        -3      709            723       -14 EV        5708 N829AS  LGA    IAD         53      229     6
##  2  2013     1     1      600            600         0      837            825        12 MQ        4650 N542MQ  LGA    ATL        134      762     6
##  3  2013     1     1      602            605        -3      821            805        16 MQ        4401 N730MQ  LGA    DTW        105      502     6
##  4  2013     1     1      608            600         8      807            735        32 MQ        3768 N9EAMQ  EWR    ORD        139      719     6
##  5  2013     1     1      624            630        -6      909            840        29 EV        4626 N11107  EWR    MSP        190     1008     6
##  6  2013     1     1      624            630        -6      840            830        10 MQ        4599 N518MQ  LGA    MSP        166     1020     6
##  7  2013     1     1      632            608        24      740            728        12 EV        4144 N13553  EWR    IAD         52      212     6
##  8  2013     1     1      656            705        -9     1007            940        27 MQ        4534 N722MQ  LGA    XNA        233     1147     7
##  9  2013     1     1      749            710        39      939            850        49 MQ        3737 N508MQ  EWR    ORD        148      719     7
## 10  2013     1     1      800            810       -10      949            955        -6 MQ        4406 N828MQ  JFK    RDU         80      427     8
## # … with 80,560 more rows, and 2 more variables: minute <dbl>, time_hour <dttm>

Example

Select all flights from carriers MQ OR EV.

filter(flights, carrier %in% c("MQ", "EV"))

## # A tibble: 80,570 x 19
##     year month   day dep_time sched_dep_time dep_delay arr_time sched_arr_time arr_delay carrier flight tailnum origin dest  air_time distance  hour
##    <int> <int> <int>    <int>          <int>     <dbl>    <int>          <int>     <dbl> <chr>    <int> <chr>   <chr>  <chr>    <dbl>    <dbl> <dbl>
##  1  2013     1     1      557            600        -3      709            723       -14 EV        5708 N829AS  LGA    IAD         53      229     6
##  2  2013     1     1      600            600         0      837            825        12 MQ        4650 N542MQ  LGA    ATL        134      762     6
##  3  2013     1     1      602            605        -3      821            805        16 MQ        4401 N730MQ  LGA    DTW        105      502     6
##  4  2013     1     1      608            600         8      807            735        32 MQ        3768 N9EAMQ  EWR    ORD        139      719     6
##  5  2013     1     1      624            630        -6      909            840        29 EV        4626 N11107  EWR    MSP        190     1008     6
##  6  2013     1     1      624            630        -6      840            830        10 MQ        4599 N518MQ  LGA    MSP        166     1020     6
##  7  2013     1     1      632            608        24      740            728        12 EV        4144 N13553  EWR    IAD         52      212     6
##  8  2013     1     1      656            705        -9     1007            940        27 MQ        4534 N722MQ  LGA    XNA        233     1147     7
##  9  2013     1     1      749            710        39      939            850        49 MQ        3737 N508MQ  EWR    ORD        148      719     7
## 10  2013     1     1      800            810       -10      949            955        -6 MQ        4406 N828MQ  JFK    RDU         80      427     8
## # … with 80,560 more rows, and 2 more variables: minute <dbl>, time_hour <dttm>

arrange

arrange() works similarly to filter() except that instead of filtering or selecting rows, it reorders them.

The function takes a data frame, and a set of column names (or more complicated expressions) to order by.

Example

Order flights on the departure delay.

arrange(flights, dep_delay)

## # A tibble: 336,776 x 19
##     year month   day dep_time sched_dep_time dep_delay arr_time sched_arr_time arr_delay carrier flight tailnum origin dest  air_time distance  hour
##    <int> <int> <int>    <int>          <int>     <dbl>    <int>          <int>     <dbl> <chr>    <int> <chr>   <chr>  <chr>    <dbl>    <dbl> <dbl>
##  1  2013    12     7     2040           2123       -43       40           2352        48 B6          97 N592JB  JFK    DEN        265     1626    21
##  2  2013     2     3     2022           2055       -33     2240           2338       -58 DL        1715 N612DL  LGA    MSY        162     1183    20
##  3  2013    11    10     1408           1440       -32     1549           1559       -10 EV        5713 N825AS  LGA    IAD         52      229    14
##  4  2013     1    11     1900           1930       -30     2233           2243       -10 DL        1435 N934DL  LGA    TPA        139     1010    19
##  5  2013     1    29     1703           1730       -27     1947           1957       -10 F9         837 N208FR  LGA    DEN        250     1620    17
##  6  2013     8     9      729            755       -26     1002            955         7 MQ        3478 N711MQ  LGA    DTW         88      502     7
##  7  2013    10    23     1907           1932       -25     2143           2143         0 EV        4361 N13994  EWR    TYS        111      631    19
##  8  2013     3    30     2030           2055       -25     2213           2250       -37 MQ        4573 N725MQ  LGA    DTW         87      502    20
##  9  2013     3     2     1431           1455       -24     1601           1631       -30 9E        3318 N929XJ  JFK    BUF         55      301    14
## 10  2013     5     5      934            958       -24     1225           1309       -44 B6         375 N531JB  LGA    FLL        150     1076     9
## # … with 336,766 more rows, and 2 more variables: minute <dbl>, time_hour <dttm>

Example

Order flights on the departure delay and by arrival delay

arrange(flights, dep_delay, arr_delay)

## # A tibble: 336,776 x 19
##     year month   day dep_time sched_dep_time dep_delay arr_time sched_arr_time arr_delay carrier flight tailnum origin dest  air_time distance  hour
##    <int> <int> <int>    <int>          <int>     <dbl>    <int>          <int>     <dbl> <chr>    <int> <chr>   <chr>  <chr>    <dbl>    <dbl> <dbl>
##  1  2013    12     7     2040           2123       -43       40           2352        48 B6          97 N592JB  JFK    DEN        265     1626    21
##  2  2013     2     3     2022           2055       -33     2240           2338       -58 DL        1715 N612DL  LGA    MSY        162     1183    20
##  3  2013    11    10     1408           1440       -32     1549           1559       -10 EV        5713 N825AS  LGA    IAD         52      229    14
##  4  2013     1    11     1900           1930       -30     2233           2243       -10 DL        1435 N934DL  LGA    TPA        139     1010    19
##  5  2013     1    29     1703           1730       -27     1947           1957       -10 F9         837 N208FR  LGA    DEN        250     1620    17
##  6  2013     8     9      729            755       -26     1002            955         7 MQ        3478 N711MQ  LGA    DTW         88      502     7
##  7  2013     3    30     2030           2055       -25     2213           2250       -37 MQ        4573 N725MQ  LGA    DTW         87      502    20
##  8  2013    10    23     1907           1932       -25     2143           2143         0 EV        4361 N13994  EWR    TYS        111      631    19
##  9  2013     5     5      934            958       -24     1225           1309       -44 B6         375 N531JB  LGA    FLL        150     1076     9
## 10  2013     9    18     1631           1655       -24     1812           1845       -33 AA        2223 N4XXAA  LGA    STL        125      888    16
## # … with 336,766 more rows, and 2 more variables: minute <dbl>, time_hour <dttm>

Example

Order flights on the departure delay and by decreasing arrival delay

arrange(flights, dep_delay, desc(arr_delay)) # Using desc()

## # A tibble: 336,776 x 19
##     year month   day dep_time sched_dep_time dep_delay arr_time sched_arr_time arr_delay carrier flight tailnum origin dest  air_time distance  hour
##    <int> <int> <int>    <int>          <int>     <dbl>    <int>          <int>     <dbl> <chr>    <int> <chr>   <chr>  <chr>    <dbl>    <dbl> <dbl>
##  1  2013    12     7     2040           2123       -43       40           2352        48 B6          97 N592JB  JFK    DEN        265     1626    21
##  2  2013     2     3     2022           2055       -33     2240           2338       -58 DL        1715 N612DL  LGA    MSY        162     1183    20
##  3  2013    11    10     1408           1440       -32     1549           1559       -10 EV        5713 N825AS  LGA    IAD         52      229    14
##  4  2013     1    11     1900           1930       -30     2233           2243       -10 DL        1435 N934DL  LGA    TPA        139     1010    19
##  5  2013     1    29     1703           1730       -27     1947           1957       -10 F9         837 N208FR  LGA    DEN        250     1620    17
##  6  2013     8     9      729            755       -26     1002            955         7 MQ        3478 N711MQ  LGA    DTW         88      502     7
##  7  2013    10    23     1907           1932       -25     2143           2143         0 EV        4361 N13994  EWR    TYS        111      631    19
##  8  2013     3    30     2030           2055       -25     2213           2250       -37 MQ        4573 N725MQ  LGA    DTW         87      502    20
##  9  2013     5    14      914            938       -24     1143           1204       -21 9E        4065 N8747B  LGA    SDF        107      659     9
## 10  2013     3     2     1431           1455       -24     1601           1631       -30 9E        3318 N929XJ  JFK    BUF         55      301    14
## # … with 336,766 more rows, and 2 more variables: minute <dbl>, time_hour <dttm>

select

select() is used to extract columns from a data frame.

Useful when you want to perform data analysis on specific columns and not the complete dataset.

Example

Select “faa” and “name” columns from the airports data frame.

select(airports, faa, name)

## # A tibble: 1,458 x 2
##    faa   name                          
##    <chr> <chr>                         
##  1 04G   Lansdowne Airport             
##  2 06A   Moton Field Municipal Airport 
##  3 06C   Schaumburg Regional           
##  4 06N   Randall Airport               
##  5 09J   Jekyll Island Airport         
##  6 0A9   Elizabethton Municipal Airport
##  7 0G6   Williams County Airport       
##  8 0G7   Finger Lakes Regional Airport 
##  9 0P2   Shoestring Aviation Airfield  
## 10 0S9   Jefferson County Intl         
## # … with 1,448 more rows

Example

You can also use select() to remove columns by using - in front of the columns you want to remove.

select(airports, -faa, -name)

## # A tibble: 1,458 x 6
##      lat    lon   alt    tz dst   tzone              
##    <dbl>  <dbl> <int> <dbl> <chr> <chr>              
##  1  41.1  -80.6  1044    -5 A     America/New_York   
##  2  32.5  -85.7   264    -6 A     America/Chicago    
##  3  42.0  -88.1   801    -6 A     America/Chicago    
##  4  41.4  -74.4   523    -5 A     America/New_York   
##  5  31.1  -81.4    11    -5 A     America/New_York   
##  6  36.4  -82.2  1593    -5 A     America/New_York   
##  7  41.5  -84.5   730    -5 A     America/New_York   
##  8  42.9  -76.8   492    -5 A     America/New_York   
##  9  39.8  -76.6  1000    -5 U     America/New_York   
## 10  48.1 -123.    108    -8 A     America/Los_Angeles
## # … with 1,448 more rows

mutate and transmute

The mutate() and transmute() functions are used to add columns to a data frame.

The difference between both functions is that mutate adds new variables and preserves existing while transmute drops existing variables.

Example

Add a new column named “distance_km” which converts mile distances into km distances.

mutate(flights, distance_km = distance / 0.62137)

## # A tibble: 336,776 x 20
##     year month   day dep_time sched_dep_time dep_delay arr_time sched_arr_time arr_delay carrier flight tailnum origin dest  air_time distance  hour
##    <int> <int> <int>    <int>          <int>     <dbl>    <int>          <int>     <dbl> <chr>    <int> <chr>   <chr>  <chr>    <dbl>    <dbl> <dbl>
##  1  2013     1     1      517            515         2      830            819        11 UA        1545 N14228  EWR    IAH        227     1400     5
##  2  2013     1     1      533            529         4      850            830        20 UA        1714 N24211  LGA    IAH        227     1416     5
##  3  2013     1     1      542            540         2      923            850        33 AA        1141 N619AA  JFK    MIA        160     1089     5
##  4  2013     1     1      544            545        -1     1004           1022       -18 B6         725 N804JB  JFK    BQN        183     1576     5
##  5  2013     1     1      554            600        -6      812            837       -25 DL         461 N668DN  LGA    ATL        116      762     6
##  6  2013     1     1      554            558        -4      740            728        12 UA        1696 N39463  EWR    ORD        150      719     5
##  7  2013     1     1      555            600        -5      913            854        19 B6         507 N516JB  EWR    FLL        158     1065     6
##  8  2013     1     1      557            600        -3      709            723       -14 EV        5708 N829AS  LGA    IAD         53      229     6
##  9  2013     1     1      557            600        -3      838            846        -8 B6          79 N593JB  JFK    MCO        140      944     6
## 10  2013     1     1      558            600        -2      753            745         8 AA         301 N3ALAA  LGA    ORD        138      733     6
## # … with 336,766 more rows, and 3 more variables: minute <dbl>, time_hour <dttm>, distance_km <dbl>

Example

transmute() drops all other columns.

transmute(flights, distance_km = distance / 0.62137)

## # A tibble: 336,776 x 1
##    distance_km
##          <dbl>
##  1       2253.
##  2       2279.
##  3       1753.
##  4       2536.
##  5       1226.
##  6       1157.
##  7       1714.
##  8        369.
##  9       1519.
## 10       1180.
## # … with 336,766 more rows

Example

It is also possible to add many new variable in a single operation.

transmute(flights, distance_km = distance / 0.62137,
          distance_knot = distance / 1.15078)

## # A tibble: 336,776 x 2
##    distance_km distance_knot
##          <dbl>         <dbl>
##  1       2253.         1217.
##  2       2279.         1230.
##  3       1753.          946.
##  4       2536.         1370.
##  5       1226.          662.
##  6       1157.          625.
##  7       1714.          925.
##  8        369.          199.
##  9       1519.          820.
## 10       1180.          637.
## # … with 336,766 more rows
…
