A brief introduction to spatial autocorrelation
…
Global Moran’s I is a measure of the overall spatial autocorrelation.

Local Moran’s I is a measure of the local spatial autocorrelation (e.x.: locally at each station).

A working example

We will use bird diversity data (https://bit.ly/2BLOwdd) to learn how to deal with spatial autocorrelation.

df <- read_table2("data/bird.diversity.txt")  # Load tidyverse first
df <- janitor::clean_names(df)  # Clean column names

df

## # A tibble: 64 x 5
##     site bird_diversity tree_diversity lon_x lat_y
##    <dbl>          <dbl>          <dbl> <dbl> <dbl>
##  1     1           7.18           4.12 -118.  33.7
##  2     2           7.54           6.12 -117.  34.1
##  3     3           4.89           4.1  -118.  34.0
##  4     4           4.15           4.8  -118.  33.8
##  5     5           5.90           3.8  -118.  33.9
##  6     6           4.72           3.7  -118.  33.7
##  7     7           3.16           4.07 -119.  33.7
##  8     8           4.05           5    -118.  33.7
##  9     9           7.27           4.2  -118.  34.1
## 10    10           6.53           4.9  -118.  33.9
## # … with 54 more rows
…
